<?xml version="1.0" encoding="UTF-8" standalone="no"?>
<svg
   xmlns:dc="http://purl.org/dc/elements/1.1/"
   xmlns:cc="http://creativecommons.org/ns#"
   xmlns:rdf="http://www.w3.org/1999/02/22-rdf-syntax-ns#"
   xmlns:svg="http://www.w3.org/2000/svg"
   xmlns="http://www.w3.org/2000/svg"
   xmlns:sodipodi="http://sodipodi.sourceforge.net/DTD/sodipodi-0.dtd"
   xmlns:inkscape="http://www.inkscape.org/namespaces/inkscape"
   id="Layer_1"
   data-name="Layer 1"
   viewBox="0 0 512 512"
   version="1.1"
   sodipodi:docname="trash.svg"
   inkscape:version="0.92.4 (unknown)">
  <metadata
     id="metadata16">
    <rdf:RDF>
      <cc:Work
         rdf:about="">
        <dc:format>image/svg+xml</dc:format>
        <dc:type
           rdf:resource="http://purl.org/dc/dcmitype/StillImage" />
        <dc:title>trash</dc:title>
      </cc:Work>
    </rdf:RDF>
  </metadata>
  <sodipodi:namedview
     pagecolor="#ffffff"
     bordercolor="#666666"
     borderopacity="1"
     objecttolerance="10"
     gridtolerance="10"
     guidetolerance="10"
     inkscape:pageopacity="0"
     inkscape:pageshadow="2"
     inkscape:window-width="836"
     inkscape:window-height="480"
     id="namedview14"
     showgrid="false"
     inkscape:zoom="0.4609375"
     inkscape:cx="256"
     inkscape:cy="256"
     inkscape:window-x="711"
     inkscape:window-y="338"
     inkscape:window-maximized="0"
     inkscape:current-layer="Layer_1" />
  <defs
     id="defs7">
    <linearGradient
       id="linear-gradient"
       x1="256"
       y1="582.3"
       x2="256"
       y2="-70.35"
       gradientUnits="userSpaceOnUse">
      <stop
         offset="0"
         stop-color="#231f20"
         id="stop2" />
      <stop
         offset="1"
         stop-color="#58595b"
         id="stop4" />
    </linearGradient>
  </defs>
  <title
     id="title9">trash</title>
  <path
     d="m 103.16224,46.706276 128.75287,18.498673 1.64257,-11.708799 a 24.989898,24.989898 0 0 1 28.10815,-21.353407 v 0 a 25.165574,25.165574 0 0 1 21.08111,28.415578 l -1.68649,11.743938 128.78801,18.44597 a 19.218944,19.218944 0 0 1 16.14461,21.731111 v 0 a 19.052052,19.052052 0 0 1 -21.45881,16.30272 L 97.812905,84.731329 A 19.218944,19.218944 0 0 1 81.66829,63.017784 v 0 A 19.078403,19.078403 0 0 1 103.16224,46.706276 Z M 391.27073,127.51719 H 106.75481 c -10.68988,0 -18.156106,8.7838 -16.566239,19.44733 L 136.6812,462.21493 c 1.58987,10.67231 11.61218,19.41219 22.28449,19.41219 h 179.67254 c 10.67231,0 20.71219,-8.73988 22.31084,-19.39462 L 407.8194,146.96452 c 1.58987,-10.70745 -5.85879,-19.45611 -16.5311,-19.45611 z m -204.38135,284.48078 -0.60608,0.0615 A 11.717583,11.717583 0 0 1 173.56436,401.45742 L 153.51974,192.06931 a 11.787853,11.787853 0 0 1 10.4615,-12.87705 l 0.60608,-0.0615 a 11.743934,11.743934 0 0 1 12.71894,10.60204 l 20.06219,209.40568 a 11.770286,11.770286 0 0 1 -10.47907,12.85947 z m 74.04739,-11.18177 a 11.743934,11.743934 0 0 1 -11.65609,11.80542 h -0.58852 A 11.77907,11.77907 0 0 1 237.02728,400.8162 V 190.42674 a 11.77907,11.77907 0 0 1 11.66488,-11.84056 h 0.58852 a 11.743934,11.743934 0 0 1 11.65609,11.80542 z m 62.89198,0.68514 a 11.726367,11.726367 0 0 1 -12.72772,10.55812 l -0.63243,-0.0615 a 11.805421,11.805421 0 0 1 -10.44394,-12.89461 l 20.28179,-209.37933 a 11.735151,11.735151 0 0 1 12.75407,-10.54055 l 0.57094,0.0615 a 11.805421,11.805421 0 0 1 10.48786,12.87704 z"
     id="path11"
     style="fill:#434040;fill-opacity:1;fill-rule:evenodd;stroke-width:0.87837952"
     inkscape:connector-curvature="0" />
</svg>
